K=16,D=2
7.275996 6.294718
16.454395 12.531715
6.159198 9.015159
15.687847 17.290367
17.571646 8.342848
6.166336 6.260495
13.579955 4.676769
5.289669 9.504685
19.493851 11.833011
6.056012 5.930498
0.295400 9.737357
5.635433 14.342819
4.852804 15.886733
0.691995 17.420534
4.462155 10.382394
16.711092 11.738152
