n=5000 k=64 d=4
0.463826
n=5000 k=64 d=8
1.282739
n=5000 k=256 d=4
1.151044
n=5000 k=256 d=8
2.226616
n=50000 k=64 d=4
9.487559
n=50000 k=64 d=8
38.544111
n=50000 k=256 d=4
71.158361
n=50000 k=256 d=8
76.367951
